<?xml version="1.0" encoding="UTF-8"?>
<svg width="182px" height="310px" viewBox="0 0 182 310" version="1.1" xmlns="http://www.w3.org/2000/svg" xmlns:xlink="http://www.w3.org/1999/xlink">
    <!-- Generator: Sketch 63.1 (92452) - https://sketch.com -->
    <title>Group 5</title>
    <desc>Created with Sketch.</desc>
    <g id="Page-1" stroke="none" stroke-width="1" fill="none" fill-rule="evenodd">
        <g id="Group-5" transform="translate(-0.500000, 0.000000)">
            <g id="Group" transform="translate(0.500000, 0.000000)">
                <path d="M150.988675,232.836909 C151.293571,227.666979 155.834176,222.53265 157.527521,217.6336 C159.030111,213.288692 159.477291,208.628015 159.663356,204.088074 C159.885383,198.577609 161.830463,190.496111 159.899455,185.101738 C152.399014,191.124552 144.215294,200.5589 140.039001,209.367903 C137.535727,214.644637 136.938444,222.450613 140.207867,227.505999 C141.260149,229.132825 143.130177,232.177511 145.000206,233.064448 C146.663843,233.856964 148.579215,233.19447 150.389828,233.132555 L150.988675,232.836909" id="Fill-121" fill="#AC1818"></path>
                <path d="M45.4634022,211.370864 C45.2398119,206.806157 53.5720712,194.596454 59.7606773,194.29926 C63.3256147,194.128993 53.2108867,191.982079 53.2812473,188.459097 C53.3359722,185.703865 53.8754036,182.117419 53.1014369,179.489113 C51.10945,179.105238 48.6296295,181.176306 47.1254761,182.154568 C43.1446294,184.744177 40.5725584,187.895667 39.4905686,192.437157 C38.5915164,196.221731 38.5008294,199.805081 38.5008294,203.657762 C38.4992658,205.515222 38.0364494,208.058394 38.5258465,209.813694 C39.7469939,214.177177 42.6552323,212.25161 45.4634022,211.370864" id="Fill-122" fill="#AC1818"></path>
                <path d="M144.843849,179.357543 L137.657686,206.629698 C137.166725,204.993585 81.9399038,192.472758 56.536598,196.717054 C48.78755,198.009536 43.8154005,200.856094 43.9952109,206.036859 C44.0327366,207.281357 44.3657768,208.657425 45.0365479,210.186734 C50.4762045,222.589922 4.70897584,211.37396 4.70897584,211.37396 C30.9284647,173.274362 47.3600115,121.010085 60.7144544,64.2956429 L76.573735,62.5651094 L144.843849,179.357543" id="Fill-123" fill="#C3403E"></path>
                <path d="M56.5115809,195.958591 C56.5115809,196.183034 56.5240895,196.444626 56.536598,196.717054 C48.78755,198.009536 43.8154005,200.856094 43.9952109,206.036859 L43.9357953,206.036859 L43.9357953,204.553987 C43.6465351,194.548469 48.6311931,186.165134 51.4331088,176.904148 C53.7331188,169.256057 51.6551356,145.972798 53.5173463,153.662682 C55.1309495,160.329415 57.5091379,166.140168 56.5115809,173.405932 C55.9893489,177.209081 56.5115809,180.804814 56.5115809,184.659043 L56.5115809,195.958591" id="Fill-124" fill="#FF6462"></path>
                <path d="M140.126561,242.864097 L119.77671,160.671497 C119.141901,156.20121 118.194379,149.418386 118.147472,149.06392 C118.147472,149.051537 118.147472,149.051537 118.147472,149.051537 C118.219396,148.471081 118.363244,146.537775 118.553999,143.940427 C119.019943,137.704005 119.751693,127.69694 120.183238,124.020718 C121.188613,115.614164 122.183043,107.195227 123.188418,98.7886729 C124.123432,90.9517401 125.058447,83.1132594 125.991897,75.2763266 C126.398425,71.8028766 125.916846,70.1992695 126.334319,66.7366547 L123.693451,63.9164115 L94.6579742,55.9850578 L60.7144544,64.2956429 L59.5527227,64.5820013 C57.3246368,65.8172121 52.865338,69.4129449 51.0953778,70.6589909 C47.5929832,73.2083546 44.223492,75.7964153 40.983777,78.5671263 C37.7065364,81.2774699 34.5903433,84.1998734 31.5789094,87.3033793 C28.5862383,90.4347471 25.692072,93.7750791 23.2059973,97.7206335 C21.9817228,99.7096635 20.8559531,101.848838 20.0006808,104.252701 C19.1422814,106.634893 18.519981,109.309635 18.5307838,112.16548 C18.5434345,115.013585 19.2501677,117.99326 20.5792014,120.488448 C21.8410016,122.994471 23.6719409,125.127454 25.4059389,126.69546 C29.0177833,129.976972 33.0392828,132.109955 36.521351,133.933362 C40.0159278,135.783082 43.0617602,137.471823 45.3039182,139.654338 L52.7480703,131.318987 C49.0799374,128.33312 45.1600699,126.266696 41.7608708,124.416976 C38.3554175,122.542489 35.4534334,120.788737 33.4348658,118.593839 L32.7015519,117.762626 C32.5061058,117.49639 32.2793883,117.250276 32.1199043,116.988684 C31.7540291,116.477883 31.4929131,115.968629 31.2896491,115.468663 C30.8971933,114.462539 30.8190148,113.519878 30.9190833,112.481248 C31.0488595,111.444166 31.3803361,110.283254 32.0073273,109.068166 C32.6265006,107.860817 33.4817729,106.614771 34.4683849,105.391943 C36.4650626,102.937 39.0168072,100.593505 41.8312314,98.4914793 C44.6456557,96.375523 47.7540309,94.5180631 50.9390209,92.8014606 C54.1599731,91.1436776 57.4950658,89.6515182 60.8927013,88.4720312 C60.9442991,88.4550044 60.9958969,88.4395256 61.0474946,88.420951 C61.1616352,90.2087561 61.2742121,91.9981092 61.3867891,93.7859143 C61.9731275,103.093336 62.5719744,112.400758 63.1598764,121.720563 C63.4100474,125.633612 63.661782,129.545113 63.9135166,133.45971 C63.9729323,134.43178 64.1417977,139.720897 64.2137219,143.940427 C64.2481204,146.288566 64.2481204,148.305458 64.1761962,149.06392 L64.1761962,149.110357 C64.1761962,149.12274 63.5304422,155.72601 63.0519901,160.765918 L43.3478934,239.486615 L43.2165536,240.03147 L40.89309,249.304839 L40.2098104,252.043044 L29.6228845,294.314188 C29.6948087,294.314188 33.8742287,294.705802 33.8742287,294.705802 L55.7329235,250.109738 L62.9550488,235.406395 L63.0035195,235.324357 L92.7660557,174.616377 C92.7785642,174.579228 92.7910728,174.557557 92.7910728,174.557557 L92.8035814,174.579228 L92.8270349,174.638047 C93.508751,176.133302 104.528785,200.701305 116.626119,227.617447 C119.499959,234.031875 122.447286,240.588708 125.308618,246.990753 C125.716709,247.891621 126.112292,248.783202 126.51882,249.68407 C138.340965,275.970223 148.701174,299.056902 148.701174,299.056902 L154.067343,299.151323 L140.126561,242.864097" id="Fill-125" fill="#FFF4F4"></path>
                <path d="M132.86691,245.758638 L126.51882,249.68407 C126.112292,248.783202 125.716709,247.891621 125.310181,246.990753 C122.447286,240.588708 119.499959,234.031875 116.626119,227.617447 C104.528785,200.701305 93.508751,176.133302 92.8270349,174.638047 L92.8035814,174.579228 L92.7910728,174.557557 C92.7910728,174.557557 92.7785642,174.579228 92.7660557,174.616377 L63.0035195,235.324357 L62.9550488,235.406395 L55.7329235,250.109738 L52.5948405,256.513331 C48.6186845,254.888054 44.8332839,252.87271 44.8332839,252.87271 C44.8332839,252.87271 68.7887248,165.130948 69.3860082,161.572365 C69.9864187,158.015329 75.974888,65.5293058 75.974888,65.5293058 L110.109163,64.3436273 L114.901502,166.907918 L132.86691,245.758638" id="Fill-126" fill="#FFFFFF"></path>
                <path d="M92.1672088,64.029407 C92.3438921,66.4348175 93.1694565,68.270607 95.0410486,69.8912408 C97.8945621,72.3663061 102.245975,74.9326965 105.746806,76.265424 C105.258972,71.0537011 101.387575,68.2798943 97.2800794,65.7847066 C96.273141,65.1732927 93.4790432,62.4629491 92.1672088,64.029407" id="Fill-127" fill="#FF4747"></path>
                <path d="M92.2391329,63.8142512 C92.0499411,66.216566 91.2165588,68.0492597 89.3387124,69.6637019 C86.4726904,72.1248363 82.1103329,74.6711042 78.6032475,75.9883529 C79.1160982,70.7812736 82.9968765,68.0229457 87.1168808,65.5478804 C88.12851,64.9395623 90.9351164,62.2400539 92.2391329,63.8142512" id="Fill-128" fill="#FF4747"></path>
                <path d="M125.730781,64.479841 C125.730781,64.479841 114.545009,71.8911059 92.195353,66.2815771 C77.0443692,70.8122313 63.0660622,65.2986712 60.7191451,64.2909992 L94.6626649,55.9788663 L123.696578,63.9117678 L125.730781,64.479841" id="Fill-129" fill="#FF4747"></path>
                <path d="M102.913619,60.6410906 C96.4091715,65.3358204 82.396466,61.9459561 82.396466,61.9459561 L86.383567,37.8036213 L98.6247488,37.7912382 C98.6247488,37.7912382 100.396272,47.1714106 101.679963,53.9774532 C102.289755,57.201694 102.780715,59.8578616 102.913619,60.6410906" id="Fill-130" fill="#D9B09A"></path>
                <path d="M114.704493,34.5174652 C114.704493,37.2618622 112.45608,39.4877183 109.683872,39.4877183 C106.910101,39.4877183 104.663252,37.2618622 104.663252,34.5174652 C104.663252,31.7715203 106.910101,29.5456642 109.683872,29.5456642 C112.45608,29.5456642 114.704493,31.7715203 114.704493,34.5174652" id="Fill-131" fill="#D9B09A"></path>
                <path d="M80.3700805,34.5174652 C80.3700805,37.2618622 78.1201047,39.4877183 75.3478969,39.4877183 C72.5741254,39.4877183 70.3272767,37.2618622 70.3272767,34.5174652 C70.3272767,31.7715203 72.5741254,29.5456642 75.3478969,29.5456642 C78.1201047,29.5456642 80.3700805,31.7715203 80.3700805,34.5174652" id="Fill-132" fill="#D9B09A"></path>
                <path d="M63.0066466,235.318166 L62.958176,235.401752 L56.1801043,249.202679 L55.7360507,250.103547 C50.5856543,251.253624 45.5806699,252.214859 40.2129375,252.036853 L43.2196807,240.025279 C46.7768002,239.421604 50.3104662,238.793164 53.8910392,238.141505 C57.2808569,237.5239 60.2281845,236.528611 63.0066466,235.318166" id="Fill-133" fill="#F6E6E6"></path>
                <path d="M109.430574,35.845549 C109.454028,37.0776641 109.479045,38.2989439 109.525952,39.4025847 C109.777687,45.2009553 102.998051,53.8319522 94.9503616,53.8319522 L89.4168909,53.8319522 C81.3676376,53.8319522 74.625528,46.2674468 74.7193421,38.4893336 C74.7318507,37.5884655 74.7443592,36.7108157 74.7568678,35.8563842 C74.7912663,32.2869654 75.0773994,29.1881032 75.089908,27.1263227 C75.1024165,25.2766023 74.8413005,24.2611909 74.8413005,24.2611909 C74.8413005,19.8017392 78.4937977,16.1982671 82.9968765,16.1982671 L101.368812,16.1982671 C105.873455,16.1982671 109.525952,19.8017392 109.525952,24.2611909 C109.525952,24.2611909 109.491553,25.4453215 109.454028,27.2377703 C109.419629,29.5131587 109.382104,32.7621656 109.430574,35.845549" id="Fill-134" fill="#EEC9B2"></path>
                <path d="M142.814256,249.540488 C138.575421,251.853025 134.250589,253.357568 128.837513,253.631543 C128.560761,253.643926 128.285573,253.654761 127.99944,253.667144 C125.136545,247.263551 122.189217,240.706718 119.315377,234.29229 C123.938851,237.518078 129.508284,239.877052 134.155211,242.259245 C136.502128,243.469689 139.030419,243.909288 141.533693,244.359722 L142.814256,249.540488" id="Fill-135" fill="#F6E6E6"></path>
                <path d="M91.1399439,38.5775629 C91.5902518,38.2757257 92.1124838,38.1023628 92.6456609,38.0125855 C93.2007279,37.953766 93.690125,37.9026858 94.3108619,38.0775966 C94.7189534,38.2153582 94.8706196,38.6797232 94.7814962,38.9815604 C94.6939363,39.3236426 94.495363,39.5186759 94.3483875,39.7276402 C94.0059659,40.1254461 93.6807436,40.5371831 93.2663978,40.8622386 C93.5728573,40.445858 93.8402276,40.0016155 94.0966529,39.5589209 C94.2170477,39.3329299 94.3921675,39.119322 94.3562054,38.9366718 C94.3296247,38.7369949 94.2483191,38.6085206 94.132615,38.589946 C93.7354685,38.5481531 93.1678929,38.5032645 92.6894408,38.5202912 C92.1859716,38.5171955 91.6809388,38.5527968 91.1399439,38.5775629" id="Fill-136" fill="#836C4E"></path>
                <path d="M30.3843427,306.71428 L29.7260801,294.493742 C29.7260801,294.493742 9.3840472,294.705802 0.251240575,307.468099 C-0.344479221,308.161551 30.3843427,306.71428 30.3843427,306.71428" id="Fill-137" fill="#E78B2E"></path>
                <polyline id="Fill-138" fill="#E78B2E" points="65.9774277 245.834485 30.8721762 305.879971 30.3796519 306.709637 25.9359888 306.189548 25.986023 305.037923 25.5529144 305.002321 24.8461812 305.002321 36.9810403 238.579556 58.6943233 244.151936 60.1562603 244.532715 65.9774277 245.834485"></polyline>
                <path d="M151.90641,308.25789 L152.564673,296.037352 C152.564673,296.037352 172.906705,296.247864 182.039512,309.010161 C182.636795,309.705161 151.90641,308.25789 151.90641,308.25789" id="Fill-139" fill="#E78B2E"></path>
                <polyline id="Fill-140" fill="#E78B2E" points="156.733148 306.550575 156.312547 306.584628 156.350073 307.722323 151.904846 308.256342 150.467926 305.838549 117.601706 250.346935 124.214039 248.687604 146.599657 243.090458 157.438317 306.550575 156.733148 306.550575"></polyline>
                <path d="M118.55869,143.934235 C118.366371,146.531583 118.222523,148.46489 118.150599,149.045346 C118.150599,149.045346 118.150599,149.045346 118.150599,149.057729 L64.1793234,149.057729 C64.2512475,148.299266 64.2512475,146.282374 64.216849,143.934235 C64.216849,143.934235 86.2412822,142.787254 92.0108519,143.195895 C97.7804215,143.602988 118.55869,143.934235 118.55869,143.934235" id="Fill-141" fill="#FF4747"></path>
                <path d="M18.6278672,128.641149 C23.4639862,122.910885 28.4470806,117.312192 33.5818413,111.854355 C37.9926695,118.189841 43.3432027,123.921653 49.4645754,128.876427 C49.9617903,129.272685 50.452751,129.658108 50.9437116,130.043531 C54.1380832,132.496926 57.5060108,134.747548 61.0646939,136.750509 C61.0803296,136.756701 61.0850203,136.767536 61.1022195,136.773728 C61.1835251,136.817068 61.2570129,136.863505 61.3351913,136.892915 C61.6525958,137.417647 61.9793818,137.936188 62.3030406,138.443894 C62.3562019,138.538314 62.4249989,138.637379 62.4891053,138.727156 C63.0535537,139.60945 63.6352014,140.473168 64.2403026,141.338435 C65.1159012,142.579838 66.0227712,143.808857 66.9843662,145.014658 C65.1002655,145.926361 63.1755121,146.777697 61.1897794,147.5795 C61.089711,147.556282 60.9927697,147.545447 60.8927013,147.523777 C46.1670083,144.813433 31.5757822,138.550698 18.6278672,128.641149" id="Fill-142" fill="#E78B2E"></path>
                <path d="M60.8911377,147.525325 C65.2456774,153.040432 71.3091981,153.391802 76.3423267,151.062238 C79.6039317,149.611871 82.4355552,145.615237 80.5623995,142.581385 C79.0519919,140.109416 75.0805266,138.813838 72.3348994,138.239573 C70.4898879,137.874273 68.4353582,137.759729 66.527804,137.844863 C63.8243932,137.954762 62.5797923,138.188493 60.7660522,140.275039 C59.0148549,142.293479 56.1597779,140.228603 56.728917,142.836786 C58.0407514,144.429558 59.4292007,145.99292 60.8911377,147.525325" id="Fill-143" fill="#E78B2E"></path>
                <path d="M62.8049462,141.08613 C61.9543647,140.719282 61.4024248,140.248725 61.0865839,139.731732 C60.8958284,139.44847 60.7785608,139.128058 60.737908,138.813838 C60.6268946,138.148248 60.7785608,137.436222 61.0693846,136.747414 C61.0709482,136.744318 61.0725117,136.739674 61.0740753,136.736578 C61.4540226,135.775343 62.0559966,134.831134 62.5375759,134.044809 C63.3506318,132.812694 66.5794018,129.68597 68.0131946,132.328207 C68.5807702,133.354453 68.2023865,135.657704 67.3971484,137.389785 C66.9358955,138.40984 66.2948323,139.217835 65.6224976,139.442278 C65.6991125,139.570753 65.7772909,139.699227 65.8554694,139.827701 C65.7616552,140.675941 65.1190284,141.257945 64.2449933,141.341531 C63.8118847,141.395707 63.3131061,141.309025 62.8049462,141.08613" id="Fill-144" fill="#E78B2E"></path>
                <path d="M50.9437116,130.043531 C54.1380832,132.496926 57.5060108,134.747548 61.0646939,136.750509 C61.0646939,136.750509 61.0584396,136.76444 61.056876,136.792302 C61.0193504,136.9765 60.8301585,137.80307 60.7410351,138.809194 C60.6956916,139.304517 60.6738016,139.829249 60.7019459,140.346242 C60.7582344,141.172812 60.9364812,141.948301 61.3570813,142.440528 C61.9293476,143.101474 60.9427355,142.295027 59.5292691,141.100061 C57.7389826,139.547534 55.2544714,137.34954 54.4148349,136.673115 C53.0232584,135.558639 50.8295711,131.741559 50.9437116,130.043531" id="Fill-145" fill="#9C602E"></path>
                <path d="M177.090896,214.607105 C175.209923,217.891713 168.802417,218.721378 162.357385,219.303382 C155.365105,219.930275 148.333735,220.26307 147.003138,223.109627 C146.369892,224.448546 147.028155,226.369469 149.578336,229.143276 C162.466835,243.159359 85.3563021,224.414493 85.3563021,224.414493 C85.3563021,224.414493 126.235814,93.4867892 112.47328,63.6776538 C110.091964,59.7336473 119.489014,61.5462186 124.387675,62.7148704 C126.142,63.131251 127.632081,64.2735889 128.4639,65.8601692 C137.571689,83.2723077 191.718084,189.006664 177.090896,214.607105" id="Fill-146" fill="#B82323"></path>
                <path d="M117.639312,9.83956274 C114.659149,9.01918462 111.557028,8.9294074 108.497124,9.48974113 C107.075839,9.75133339 103.736056,11.1970563 102.727554,11.6428467 C102.674393,11.6382031 102.624358,11.6304636 102.572761,11.62582 C103.377999,10.803894 107.515202,6.58281641 109.91059,4.26718309 C107.935802,4.30123652 95.7368368,6.87536634 95.7368368,6.87536634 C95.7368368,6.87536634 98.0274654,1.09711822 101.079552,0.00895630288 C94.313989,0.10802083 87.4796289,-0.763437432 81.9258317,3.71923242 C79.6242581,5.57824019 74.1251859,12.9275898 73.5388475,16.4536678 C73.4684869,16.7214516 73.402817,16.9985227 73.3387107,17.2941684 C72.9822169,18.9473077 73.0994846,20.4595896 73.4528512,21.9269829 C73.3762363,22.2210807 73.3246385,22.5260137 73.2308244,22.8077285 C72.960327,23.6296545 72.0753469,25.0273931 72.2145045,25.8911119 C72.4240228,27.1928817 74.9335511,28.9079363 75.8810739,29.7917777 C76.2328769,28.8878138 76.1578256,27.7841731 76.0515029,26.6836281 C76.6706762,25.4174596 77.4821686,23.2751892 78.0044006,21.846493 L77.9950192,21.8805464 C83.0109486,18.1006156 91.0211127,20.3992222 98.2338565,23.8324272 C97.9649227,23.0414589 95.7133833,20.7227298 94.3046076,19.3667841 C95.0129044,19.2274746 95.7853075,19.1051918 96.5655284,19.0014836 C100.028834,18.5417623 103.482758,19.9162826 105.640483,22.6374613 C107.293175,24.7193643 109.031864,26.9220021 109.463409,27.5117457 C110.074765,26.1186507 110.693938,24.7921148 111.159882,23.4531958 C111.436633,22.6591317 111.738402,20.1221511 111.771237,18.4906821 C111.96981,16.755505 110.59856,14.5915643 111.905704,13.3579013 C113.563087,11.7929914 116.189883,11.4555528 117.639312,9.83956274" id="Fill-147" fill="#000000"></path>
                <path d="M91.5855611,30.5533362 C91.5855611,30.5533362 100.705859,17.2848811 111.589863,28.9203194 C112.773485,38.1101022 95.344381,40.5774281 91.5855611,30.5533362" id="Fill-148" fill="#FF0000"></path>
                <path d="M93.7385956,30.5533362 C93.7385956,30.5533362 84.6182976,17.2848811 73.7342936,28.9203194 C72.5491083,38.1101022 89.9782121,40.5774281 93.7385956,30.5533362" id="Fill-149" fill="#FF0000"></path>
                <path d="M107.693449,31.1895162 C107.693449,33.2791586 104.916551,34.9740907 101.490771,34.9740907 C98.0634275,34.9740907 95.2849654,33.2791586 95.2849654,31.1895162 C95.2849654,29.0998739 98.0634275,27.4049417 101.490771,27.4049417 C104.916551,27.4049417 107.693449,29.0998739 107.693449,31.1895162" id="Fill-150" fill="#EEC9B2"></path>
                <path d="M77.9168407,31.1895162 C77.9168407,33.2791586 80.6968665,34.9740907 84.1226462,34.9740907 C87.5499895,34.9740907 90.326888,33.2791586 90.326888,31.1895162 C90.326888,29.0998739 87.5499895,27.4049417 84.1226462,27.4049417 C80.6968665,27.4049417 77.9168407,29.0998739 77.9168407,31.1895162" id="Fill-151" fill="#EEC9B2"></path>
                <path d="M98.8123771,32.0083465 C98.8702291,31.5331463 99.2157779,31.1245051 99.6051066,30.8814875 C99.999126,30.6152515 100.474451,30.4805857 100.965412,30.4620111 C101.453245,30.4651069 101.962969,30.5858418 102.358552,30.8814875 C102.763516,31.1585586 103.024632,31.5873222 103.118446,32.0362084 C102.21314,31.7421105 101.642437,31.6229235 100.984174,31.6461418 C100.658952,31.6399502 100.325912,31.6863867 99.9694182,31.7312754 C99.6129244,31.8009301 99.2361043,31.828792 98.8123771,32.0083465" id="Fill-152" fill="#332C2E"></path>
                <path d="M81.2816413,32.0083465 C81.3394933,31.5331463 81.6866056,31.1245051 82.0774979,30.8814875 C82.4699537,30.6152515 82.9452787,30.4805857 83.4362394,30.4620111 C83.9225093,30.4651069 84.4322328,30.5858418 84.8278158,30.8814875 C85.2327802,31.1585586 85.4938962,31.5873222 85.5892739,32.0362084 C84.6839675,31.7421105 84.1117012,31.6229235 83.4534386,31.6461418 C83.1282163,31.6399502 82.7967396,31.6863867 82.4386823,31.7312754 C82.0837522,31.8009301 81.7053685,31.828792 81.2816413,32.0083465" id="Fill-153" fill="#332C2E"></path>
                <path d="M84.6589503,45.0755767 L88.9040402,46.0538389 C90.3112523,46.3417452 91.7153373,46.5847629 93.124113,46.6017896 C94.4906723,46.6544176 95.8963209,46.3015003 97.2847702,45.9687054 C98.6654016,45.5925697 100.050724,45.1808328 101.326596,44.4827375 C100.252424,45.4950531 98.8624113,46.1018233 97.4927248,46.6219121 C96.1089663,47.1172347 94.6548471,47.5212323 93.1037866,47.4918225 C91.6011968,47.4484817 90.1267512,47.1652191 88.7257934,46.7116893 C87.3217084,46.2689947 85.9754755,45.7117567 84.6589503,45.0755767" id="Fill-154" fill="#836C4E"></path>
                <path d="M162.357385,219.303382 C155.365105,219.930275 148.333735,220.26307 147.003138,223.109627 L146.990629,223.097244 C146.357384,211.749712 149.91294,200.081768 150.943332,188.830205 C151.997177,177.292283 150.729123,165.898315 150.286633,154.467197 C153.22927,160.04422 159.796259,183.801132 160.574917,189.90908 C161.208162,194.924221 161.664724,200.081768 162.143177,205.09691 C162.549704,209.331918 162.731078,214.418263 162.357385,219.303382" id="Fill-158" fill="#C53634"></path>
                <path d="M22.4679927,127.986394 C22.3257079,128.138087 22.1756053,128.308354 22.1599696,128.514223 C22.1396432,128.819156 22.4085771,129.054434 22.6540574,129.237084 C26.211177,131.91647 29.7854957,134.606691 33.7163082,136.711812 C35.9021777,137.88356 38.3257097,138.89278 40.7961487,138.624996 C38.7885261,136.889819 36.304015,135.798561 34.0962555,134.315689 C32.0855057,132.965935 30.3030371,131.283386 28.8442272,129.359367 C28.0045906,128.25263 27.1915347,126.616518 26.0047858,125.828645 C24.4818696,124.814782 23.5640546,126.806907 22.4679927,127.986394" id="Fill-161" fill="#F4B462"></path>
                <path d="M39.3107582,84.8530802 C32.2574983,88.7738684 26.6083235,95.1124502 23.5593639,102.529907 C21.737806,106.963044 20.9935471,112.48744 24.0722145,116.179141 C23.7016487,108.240048 26.3409532,100.197247 31.3568826,93.9917828 C33.8101224,90.9548359 36.8434463,88.3760624 39.0512057,85.1580131 L39.3107582,84.8530802" id="Fill-162" fill="#FFC5C5"></path>
                <path d="M64.3888416,88.8141134 C64.2340483,91.4377754 64.4404394,94.0676291 64.6468305,96.6881954 C65.3801444,105.970851 66.1118947,115.253507 66.843645,124.536163 C67.2673722,120.364617 67.6895358,116.188428 67.8005492,111.996761 C68.0038132,104.288302 67.0000019,96.5519817 64.5358171,89.2366855 L64.3888416,88.8141134" id="Fill-163" fill="#FFC5C5"></path>
                <path d="M68.599533,174.644239 C68.599533,174.644239 66.6169275,186.429822 64.7687889,192.170921 C63.1520585,197.196898 62.0591238,202.373019 60.9693162,207.536758 C60.2797822,210.804339 59.5902483,214.068825 58.9007144,217.333311 C70.0301986,199.670415 68.599533,174.644239 68.599533,174.644239" id="Fill-164" fill="#FFC5C5"></path>
            </g>
            <path d="M94,116 C99.2467051,116 103.5,111.769091 103.5,106.55 C103.5,103.070606 100.333333,97.2206061 94,89 C87.6666667,97.2206061 84.5,103.070606 84.5,106.55 C84.5,111.769091 88.7532949,116 94,116 Z" id="Oval" stroke="#FFFFFF" stroke-width="2" fill="#FF4747"></path>
        </g>
    </g>
</svg>