<svg xmlns="http://www.w3.org/2000/svg" width="234" height="82" viewBox="0 0 234 82">
  <g id="Group_1779" data-name="Group 1779" transform="translate(-547 -790)">
    <rect id="Rectangle_1367" data-name="Rectangle 1367" width="234" height="82" rx="15" transform="translate(547 790)"/>
    <g id="Group_1778" data-name="Group 1778" transform="translate(5)">
      <g id="Group_1776" data-name="Group 1776" transform="translate(276.27 1)">
        <text id="Get_it_on" data-name="Get it on" transform="translate(354 821)" fill="#fff" font-size="14" font-family="ProductSans-Regular, Product Sans"><tspan x="0" y="0">Get it on</tspan></text>
        <text id="Google_Play" data-name="Google Play" transform="translate(354 848)" fill="#fff" font-size="20" font-family="ProductSans-Bold, Product Sans" font-weight="700"><tspan x="0" y="0">Google Play</tspan></text>
      </g>
      <g id="playstore" transform="translate(554.451 812)">
        <g id="Group_1581" data-name="Group 1581" transform="translate(23.549 0.001)">
          <path id="Path_14586" data-name="Path 14586" d="M73.434,13.389C68.9,10.855,61.632,6.786,50.353.47A2.719,2.719,0,0,0,47.962.158L67.313,19.51Z" transform="translate(-46.102 -0.012)" fill="#32bbff"/>
          <path id="Path_14587" data-name="Path 14587" d="M25.409,1.93A2.781,2.781,0,0,0,25,2.106a2.721,2.721,0,0,0-1.448,2.419V38.038A2.721,2.721,0,0,0,25,40.457a2.815,2.815,0,0,0,.411.176L44.76,21.281Z" transform="translate(-23.549 -1.784)" fill="#32bbff"/>
          <path id="Path_14588" data-name="Path 14588" d="M67.308,255.98,47.956,275.332a2.691,2.691,0,0,0,2.392-.312c10.938-6.125,18.128-10.146,22.711-12.7l.376-.211Z" transform="translate(-46.097 -236.482)" fill="#32bbff"/>
        </g>
        <path id="Path_14589" data-name="Path 14589" d="M23.549,255.98v16.756A2.721,2.721,0,0,0,25,275.156a2.816,2.816,0,0,0,.411.176L44.76,255.98Z" transform="translate(0 -236.481)" fill="#2c9fd9"/>
        <path id="Path_14590" data-name="Path 14590" d="M45.364.459a2.728,2.728,0,0,0-2.8-.136L62.03,19.792l6.415-6.415C63.914,10.844,56.643,6.775,45.364.459Z" transform="translate(-17.564 0)" fill="#29cc5e"/>
        <path id="Path_14591" data-name="Path 14591" d="M62.03,252.126,42.561,271.6a2.709,2.709,0,0,0,2.8-.136c10.938-6.125,18.128-10.146,22.711-12.7l.376-.211Z" transform="translate(-17.564 -232.921)" fill="#d93f21"/>
        <path id="Path_14592" data-name="Path 14592" d="M309.091,179.189a2.714,2.714,0,0,0-1.4-2.385s-1.737-.969-7.06-3.946l-6.332,6.332,6.338,6.338c5.265-2.956,7.053-3.953,7.053-3.953A2.714,2.714,0,0,0,309.091,179.189Z" transform="translate(-250.13 -159.69)" fill="#ffd500"/>
        <path id="Path_14593" data-name="Path 14593" d="M307.694,258.365a2.714,2.714,0,0,0,1.4-2.385H294.3l6.338,6.338C305.906,259.362,307.694,258.365,307.694,258.365Z" transform="translate(-250.13 -236.481)" fill="#fa0"/>
      </g>
    </g>
  </g>
</svg>
