<?xml version="1.0" encoding="UTF-8"?>
<svg xmlns="http://www.w3.org/2000/svg" xmlns:xlink="http://www.w3.org/1999/xlink" width="256pt" height="256pt" viewBox="0 0 256 256" version="1.1">
<g id="surface1915758">
<path style=" stroke:none;fill-rule:nonzero;fill:rgb(100%,100%,100%);fill-opacity:1;" d="M 198 108 C 220 108 238 126 238 148 C 238 170 220 188 198 188 L 58 188 C 36 188 18 170 18 148 C 18 126 36 108 58 108 L 68 108 L 68 98 C 68 64.800781 94.800781 38 128 38 C 161.199219 38 188 64.800781 188 98 L 188 108 Z M 198 108 "/>
<path style=" stroke:none;fill-rule:nonzero;fill:rgb(100%,100%,100%);fill-opacity:1;" d="M 212 210 C 208.601562 210 206 207.398438 206 204 L 206 184 C 206 180.601562 208.601562 178 212 178 C 215.398438 178 218 180.601562 218 184 L 218 204 C 218 207.398438 215.398438 210 212 210 Z M 212 230 C 211.601562 230 211.199219 230 210.800781 229.800781 C 210.398438 229.800781 210 229.601562 209.601562 229.398438 C 209.199219 229.199219 209 229 208.601562 228.800781 C 208.199219 228.601562 208 228.398438 207.800781 228 C 207.601562 227.800781 207.199219 227.398438 207 227.199219 C 206.800781 226.800781 206.601562 226.601562 206.398438 226.199219 C 206.199219 225.800781 206.199219 225.398438 206 225 C 206 224.601562 205.800781 224.199219 205.800781 223.800781 C 205.800781 223.398438 205.800781 223 206 222.601562 C 206 222.199219 206.199219 221.800781 206.398438 221.398438 C 206.601562 221 206.800781 220.800781 207 220.398438 C 207.199219 220 207.398438 219.800781 207.800781 219.601562 C 209.199219 218.199219 211.199219 217.601562 213.199219 218 C 213.601562 218 214 218.199219 214.398438 218.398438 C 214.800781 218.601562 215.199219 218.800781 215.398438 219 C 215.800781 219.199219 216 219.398438 216.199219 219.800781 C 217.398438 221 218 222.398438 218 224 C 218 225.601562 217.398438 227.199219 216.199219 228.199219 C 216 228.398438 215.601562 228.800781 215.398438 229 C 215 229.199219 214.800781 229.398438 214.398438 229.601562 C 214 229.800781 213.601562 229.800781 213.199219 230 C 212.800781 230 212.398438 230 212 230 Z M 212 230 "/>
<path style=" stroke:none;fill-rule:nonzero;fill:rgb(90.588235%,29.803922%,23.529412%);fill-opacity:1;" d="M 239 222.800781 L 196.601562 152.199219 C 194.800781 149.199219 191.601562 147.398438 188 147.398438 C 184.398438 147.398438 181.199219 149.199219 179.398438 152.199219 L 137 222.800781 C 135.199219 226 135 229.601562 136.800781 232.800781 C 138.601562 236 141.800781 237.800781 145.601562 237.800781 L 230.199219 237.800781 C 233.800781 237.800781 237.199219 236 239 232.800781 C 240.800781 229.800781 240.800781 226 239 222.800781 Z M 239 222.800781 "/>
<path style=" stroke:none;fill-rule:nonzero;fill:rgb(100%,100%,100%);fill-opacity:1;" d="M 188 204 C 184.601562 204 182 201.398438 182 198 L 182 178 C 182 174.601562 184.601562 172 188 172 C 191.398438 172 194 174.601562 194 178 L 194 198 C 194 201.398438 191.398438 204 188 204 Z M 188 224 C 186.398438 224 184.800781 223.398438 183.800781 222.199219 C 183.601562 222 183.199219 221.601562 183 221.199219 C 182.800781 220.800781 182.601562 220.601562 182.398438 220.199219 C 182.199219 219.800781 182.199219 219.398438 182 219 C 182 218.601562 181.800781 218.199219 181.800781 217.800781 C 181.800781 216.199219 182.398438 214.601562 183.601562 213.601562 C 185.800781 211.398438 189.800781 211.398438 192 213.601562 C 193.199219 214.800781 193.800781 216.199219 193.800781 217.800781 C 193.800781 218.199219 193.800781 218.601562 193.601562 219 C 193.601562 219.398438 193.398438 219.800781 193.199219 220.199219 C 193 220.601562 192.800781 221 192.601562 221.199219 C 192.398438 221.601562 192.199219 221.800781 191.800781 222.199219 C 191.199219 223.398438 189.601562 224 188 224 Z M 188 224 "/>
<path style=" stroke:none;fill-rule:nonzero;fill:rgb(20.392157%,28.627451%,36.862745%);fill-opacity:1;" d="M 122 194 L 58 194 C 32.601562 194 12 173.398438 12 148 C 12 122.601562 32.601562 102 58 102 L 62 102 L 62 98 C 62 61.601562 91.601562 32 128 32 C 164.398438 32 194 61.601562 194 98 L 194 102 L 198 102 C 223.398438 102 244 122.601562 244 148 C 244 152.199219 243.398438 156.199219 242.398438 160.199219 C 241.601562 163.398438 238.199219 165.199219 235 164.398438 C 231.800781 163.601562 230 160.199219 230.800781 157 C 231.601562 154 232 151 232 148 C 232 129.199219 216.800781 114 198 114 L 188 114 C 184.601562 114 182 111.398438 182 108 L 182 98 C 182 68.199219 157.800781 44 128 44 C 98.199219 44 74 68.199219 74 98 L 74 108 C 74 111.398438 71.398438 114 68 114 L 58 114 C 39.199219 114 24 129.199219 24 148 C 24 166.800781 39.199219 182 58 182 L 122 182 C 125.398438 182 128 184.601562 128 188 C 128 191.398438 125.398438 194 122 194 Z M 122 194 "/>
</g>
</svg>
