<?xml version="1.0" encoding="UTF-8"?>
<svg xmlns="http://www.w3.org/2000/svg" xmlns:xlink="http://www.w3.org/1999/xlink" width="256pt" height="256pt" viewBox="0 0 256 256" version="1.1">
<g id="surface2715603">
<path style=" stroke:none;fill-rule:nonzero;fill:rgb(100%,100%,100%);fill-opacity:1;" d="M 188 48 L 188 8 L 248 8 L 248 48.199219 Z M 188 48 "/>
<path style=" stroke:none;fill-rule:nonzero;fill:rgb(100%,100%,100%);fill-opacity:1;" d="M 198 38 L 148 38 C 159 49 159 67 148 78 L 198 78 Z M 198 38 "/>
<path style=" stroke:none;fill-rule:nonzero;fill:rgb(26.666667%,29.411765%,32.941176%);fill-opacity:1;" d="M 248 254 L 8 254 C 4.601562 254 2 251.398438 2 248 C 2 244.601562 4.601562 242 8 242 L 242 242 L 242 108 C 242 104.601562 244.601562 102 248 102 C 251.398438 102 254 104.601562 254 108 L 254 248 C 254 251.398438 251.398438 254 248 254 Z M 248 254 "/>
<path style=" stroke:none;fill-rule:nonzero;fill:rgb(26.666667%,29.411765%,32.941176%);fill-opacity:1;" d="M 218 234 C 214.601562 234 212 231.398438 212 228 L 212 148 C 212 144.601562 214.601562 142 218 142 C 221.398438 142 224 144.601562 224 148 L 224 228 C 224 231.398438 221.398438 234 218 234 Z M 218 234 "/>
<path style=" stroke:none;fill-rule:nonzero;fill:rgb(26.666667%,29.411765%,32.941176%);fill-opacity:1;" d="M 188 234 C 184.601562 234 182 231.398438 182 228 L 182 188 C 182 184.601562 184.601562 182 188 182 C 191.398438 182 194 184.601562 194 188 L 194 228 C 194 231.398438 191.398438 234 188 234 Z M 188 234 "/>
<path style=" stroke:none;fill-rule:nonzero;fill:rgb(26.666667%,29.411765%,32.941176%);fill-opacity:1;" d="M 158 234 C 154.601562 234 152 231.398438 152 228 L 152 208 C 152 204.601562 154.601562 202 158 202 C 161.398438 202 164 204.601562 164 208 L 164 228 C 164 231.398438 161.398438 234 158 234 Z M 158 234 "/>
<path style=" stroke:none;fill-rule:nonzero;fill:rgb(26.666667%,29.411765%,32.941176%);fill-opacity:1;" d="M 128 234 C 126.398438 234 124.800781 233.398438 123.800781 232.199219 C 122.601562 231 122 229.601562 122 228 C 122 227.601562 122 227.199219 122.199219 226.800781 C 122.199219 226.398438 122.398438 226 122.601562 225.601562 C 122.800781 225.199219 123 225 123.199219 224.601562 C 123.398438 224.199219 123.601562 224 124 223.601562 C 126.199219 221.398438 130.199219 221.398438 132.398438 223.601562 C 133.601562 224.800781 134.199219 226.199219 134.199219 227.800781 C 134.199219 229.398438 133.601562 231 132.398438 232 C 132.199219 232.199219 131.800781 232.601562 131.398438 232.800781 C 131 233 130.800781 233.199219 130.398438 233.398438 C 130 233.601562 129.601562 233.601562 129.199219 233.800781 C 128.800781 234 128.398438 234 128 234 Z M 128 234 "/>
<path style=" stroke:none;fill-rule:nonzero;fill:rgb(83.529412%,4.313725%,4.313725%);fill-opacity:1;" d="M 248 2 L 188 2 C 184.601562 2 182 4.601562 182 8 L 182 48 C 182 51.398438 184.601562 54 188 54 L 228 54 C 231.398438 54 234 51.398438 234 48 C 234 44.601562 231.398438 42 228 42 L 194 42 L 194 14 L 242 14 L 242 47 C 206.800781 145.800781 112.800781 212 8 212 C 4.601562 212 2 214.601562 2 218 C 2 221.398438 4.601562 224 8 224 C 118.199219 224 216.800781 154.199219 253.601562 50.199219 L 253.601562 50 C 253.800781 49.398438 254 48.601562 254 48 L 254 8 C 254 4.601562 251.398438 2 248 2 Z M 248 2 "/>
<path style=" stroke:none;fill-rule:nonzero;fill:rgb(83.529412%,4.313725%,4.313725%);fill-opacity:1;" d="M 142.398438 80.199219 C 143.398438 82.398438 145.601562 84 148 84 L 198 84 C 201.398438 84 204 81.398438 204 78 L 204 68 C 204 64.601562 201.398438 62 198 62 C 194.601562 62 192 64.601562 192 68 L 192 72 L 159.199219 72 C 163.199219 63.199219 163.199219 52.800781 159.199219 44 L 168 44 C 171.398438 44 174 41.398438 174 38 C 174 34.601562 171.398438 32 168 32 L 148 32 C 145.601562 32 143.398438 33.398438 142.398438 35.800781 C 141.398438 38 142 40.601562 143.800781 42.398438 C 152.398438 51 152.398438 65.199219 143.800781 74 C 142 75.398438 141.601562 78 142.398438 80.199219 Z M 142.398438 80.199219 "/>
</g>
</svg>
