<svg xmlns="http://www.w3.org/2000/svg" width="51.948" height="58.41" viewBox="0 0 51.948 58.41">
  <defs>
    <style>
      .cls-1 {
        fill: #b71c1c;
      }
    </style>
  </defs>
  <g id="Group_1897" data-name="Group 1897" transform="translate(-1404 -1516)">
    <path id="Path_14757" data-name="Path 14757" class="cls-1" d="M97.742,20a.742.742,0,0,0-.742.742v6.311a.742.742,0,1,0,1.485,0V20.742A.742.742,0,0,0,97.742,20Z" transform="translate(1313.312 1496)"/>
    <path id="Path_14758" data-name="Path 14758" class="cls-1" d="M310.149,133.54a.742.742,0,0,1-1.485,0,4.792,4.792,0,0,0-4.785-4.788c-3.533,0-4.787,3.145-4.787,5.837,0,2.311,1.047,4.822,3.112,7.464a32.249,32.249,0,0,0,4.759,4.8,2.834,2.834,0,0,1,4.352-.481,2.516,2.516,0,0,1,.431.555c2.9-2.405,7.975-7.326,7.975-12.336,0-2.828-1.677-5.833-4.785-5.833a4.791,4.791,0,0,0-4.787,4.784Z" transform="translate(1136.228 1400.706)"/>
    <path id="Path_14759" data-name="Path 14759" class="cls-1" d="M373.6,277.907a.948.948,0,0,1,.023-.206,1.176,1.176,0,0,0-.332-.694,1.361,1.361,0,0,0-.941-.385,1.346,1.346,0,0,0-1.3,1.008.738.738,0,0,1-.045.27s0,.01,0,.015v3.209h2.6Z" transform="translate(1073.22 1271.135)"/>
    <path id="Path_14760" data-name="Path 14760" class="cls-1" d="M97.062,320.869a6.532,6.532,0,0,0,13.061-.166l.008-10.112a5.018,5.018,0,1,1,10.036-.012V320.84a6.484,6.484,0,1,0,12.967-.024V305.928h-1.485v14.888a5,5,0,1,1-10,.025V310.579a6.5,6.5,0,1,0-13.006.011l-.008,10.112a5.047,5.047,0,0,1-10.093.028.746.746,0,0,0-.048-.262l-.012-.034v-7.083H97v7.218a.742.742,0,0,0,.048.262Z" transform="translate(1313.312 1247.073)"/>
    <rect id="Rectangle_1356" data-name="Rectangle 1356" class="cls-1" width="13.651" height="11.871" transform="translate(1404 1523.953)"/>
    <path id="Path_14761" data-name="Path 14761" class="cls-1" d="M95.114,347.421a1.109,1.109,0,0,0,1.114-1.1V344H94v2.32A1.109,1.109,0,0,0,95.114,347.421Z" transform="translate(1315.939 1212.094)"/>
    <path id="Path_14762" data-name="Path 14762" class="cls-1" d="M50.356,205h5.291a4.093,4.093,0,0,0,4.089-4.089V193H46v7.648A4.361,4.361,0,0,0,50.356,205Z" transform="translate(1358 1344.408)"/>
    <path id="Path_14763" data-name="Path 14763" class="cls-1" d="M83.435,303.811v-2.1a5.579,5.579,0,0,1-.624.036H77.52c-.175,0-.348-.009-.52-.025v2.09a1.837,1.837,0,0,0,1.784,1.648h3.125A1.612,1.612,0,0,0,83.435,303.811Z" transform="translate(1330.836 1249.15)"/>
  </g>
</svg>
